Data Pre-processing
…
Variables such as RT in incorrect TOL and ANT trials seem to show a high amount of missing values

Code

base_general %>% 
  mutate(across(everything(), is.na)) %>% 
  
  mutate(across(everything(), as.numeric)) %>% 
  summarise(across(everything(), sum)) %>% 
  pivot_longer(everything(), names_to = "variables",
               values_to = "perdidos") %>% 
  arrange(desc(perdidos))

# A tibble: 56 × 2
   variables                           perdidos
   <chr>                                  <dbl>
 1 TOL_rt_planning_mean_incorrect            21
 2 TOL_rt_planning_median_incorrect          21
 3 ANT_mean_rt_incorrect_congruent           19
 4 ANT_median_rt_incorrect_congruent         19
 5 ANT_mean_rt_incorrect_all                  9
 6 ANT_median_rt_incorrect_all                9
 7 ANT_mean_rt_incorrect_incongruent          9
 8 ANT_median_rt_incorrect_incongruent        9
 9 ANT_completed_trials_all                   8
10 ANT_omitted_trials_amount_all              8
# ℹ 46 more rows
…
